{
  "type": "mdx",
  "permalink": "/assets/projectDetails/SCMECpp",
  "source": "@site/src/pages/assets/projectDetails/SCMECpp.md",
  "title": "SCME: Single Center Multipole Expansion",
  "description": "A transferable and efficient polarizable interaction potential for extremely accurate solvent simulations in QM/MM systems.",
  "frontMatter": {}
}
