{
  "permalink": "/blog/ssh_tricks",
  "editUrl": "https://github.com/Anoop/website/tree/main/blog/ssh_tricks.md",
  "source": "@site/blog/ssh_tricks.md",
  "title": "ssh_tricks",
  "description": "copy ssh private and public key from the cloud",
  "date": "2023-12-25T05:23:08.000Z",
  "formattedDate": "December 25, 2023",
  "tags": [],
  "readingTime": 0.215,
  "hasTruncateMarker": false,
  "authors": [],
  "frontMatter": {},
  "nextItem": {
    "title": "Hello, world.",
    "permalink": "/blog/hello-world"
  }
}