{
  "permalink": "/blog/hello-world",
  "editUrl": "https://github.com/Anoop/website/tree/main/blog/2022-07-07-hello-world.md",
  "source": "@site/blog/2022-07-07-hello-world.md",
  "title": "Hello, world.",
  "description": "When it comes to social media, I'm definitely more a reader than a writer type of person. Recently I've felt a need to start creating content. Or, more like get back into doing it.",
  "date": "2022-07-07T00:00:00.000Z",
  "formattedDate": "July 7, 2022",
  "tags": [
    {
      "label": "shorts",
      "permalink": "/blog/tags/shorts"
    },
    {
      "label": "hello",
      "permalink": "/blog/tags/hello"
    },
    {
      "label": "world",
      "permalink": "/blog/tags/world"
    },
    {
      "label": "introduction",
      "permalink": "/blog/tags/introduction"
    }
  ],
  "readingTime": 2.075,
  "hasTruncateMarker": true,
  "authors": [
    {
      "name": "Anoop",
      "title": "Computational chemist",
      "url": "https://anoopdev.netlify.app",
      "imageURL": "/img/avatar-128px.jpg",
      "key": "Anoop"
    }
  ],
  "frontMatter": {
    "slug": "hello-world",
    "title": "Hello, world.",
    "authors": "Anoop",
    "tags": [
      "shorts",
      "hello",
      "world",
      "introduction"
    ]
  }
}