{
  "/__docusaurus/debug-fc6": {
    "__comp": "__comp---theme-debug-config-23-a-2ff",
    "__context": {
      "plugin": "plugin---docusaurus-debug-625-29f"
    }
  },
  "/__docusaurus/debug/config-bc6": {
    "__comp": "__comp---theme-debug-config-23-a-2ff",
    "__context": {
      "plugin": "plugin---docusaurus-debug-625-29f"
    }
  },
  "/__docusaurus/debug/content-79a": {
    "__comp": "__comp---theme-debug-contentba-8-ce7",
    "__context": {
      "plugin": "plugin---docusaurus-debug-625-29f"
    },
    "allContent": "allContent---docusaurus-debug-content-246-9aa"
  },
  "/__docusaurus/debug/globalData-66c": {
    "__comp": "__comp---theme-debug-global-dataede-0fa",
    "__context": {
      "plugin": "plugin---docusaurus-debug-625-29f"
    }
  },
  "/__docusaurus/debug/metadata-98c": {
    "__comp": "__comp---theme-debug-site-metadata-68-e-3d4",
    "__context": {
      "plugin": "plugin---docusaurus-debug-625-29f"
    }
  },
  "/__docusaurus/debug/registry-c4e": {
    "__comp": "__comp---theme-debug-registry-679-501",
    "__context": {
      "plugin": "plugin---docusaurus-debug-625-29f"
    }
  },
  "/__docusaurus/debug/routes-813": {
    "__comp": "__comp---theme-debug-routes-946-699",
    "__context": {
      "plugin": "plugin---docusaurus-debug-625-29f"
    }
  },
  "/assets/projectDetails/HMPol-884": {
    "__comp": "__comp---theme-mdx-page-1-f-3-b90",
    "__context": {
      "plugin": "plugin---assets-project-details-hm-pol-7-a-0-434"
    },
    "content": "content---assets-project-details-hm-pol-1-d-9-56a"
  },
  "/assets/projectDetails/QBlink-640": {
    "__comp": "__comp---theme-mdx-page-1-f-3-b90",
    "__context": {
      "plugin": "plugin---assets-project-details-hm-pol-7-a-0-434"
    },
    "content": "content---assets-project-details-q-blink-5-de-b7c"
  },
  "/assets/projectDetails/SCMECpp-643": {
    "__comp": "__comp---theme-mdx-page-1-f-3-b90",
    "__context": {
      "plugin": "plugin---assets-project-details-hm-pol-7-a-0-434"
    },
    "content": "content---assets-project-details-scme-cpp-806-4a8"
  },
  "/blog-f7c": {
    "__comp": "__comp---theme-blog-list-pagea-6-a-7ba",
    "__context": {
      "plugin": "plugin---blog-193-acf"
    },
    "sidebar": "sidebar---blog-814-8ac",
    "items": [
      {
        "content": "content---blog-133-8b5"
      }
    ],
    "metadata": "metadata---blogb-2-b-df1"
  },
  "/blog/archive-6b4": {
    "__comp": "__comp---theme-blog-archive-page-9-e-4-1d8",
    "__context": {
      "plugin": "plugin---blog-193-acf"
    },
    "archive": "archive---blog-archiveb-2-f-393"
  },
  "/blog/hello-world-ef4": {
    "__comp": "__comp---theme-blog-post-pageccc-cab",
    "__context": {
      "plugin": "plugin---blog-193-acf"
    },
    "sidebar": "sidebar---blog-814-8ac",
    "content": "content---blog-hello-world-67-b-e6a"
  },
  "/blog/tags-499": {
    "__comp": "__comp---theme-blog-tags-list-page-01-a-d0b",
    "__context": {
      "plugin": "plugin---blog-193-acf"
    },
    "sidebar": "sidebar---blog-814-8ac",
    "tags": "tags---blog-tagsa-70-da2"
  },
  "/blog/tags/hello-bb8": {
    "__comp": "__comp---theme-blog-tags-posts-page-687-b6c",
    "__context": {
      "plugin": "plugin---blog-193-acf"
    },
    "sidebar": "sidebar---blog-814-8ac",
    "items": [
      {
        "content": "content---blog-133-8b5"
      }
    ],
    "tag": "tag---blog-tags-hello-30-a-bed",
    "listMetadata": "listMetadata---blog-tags-hello-664-70a"
  },
  "/blog/tags/introduction-1ea": {
    "__comp": "__comp---theme-blog-tags-posts-page-687-b6c",
    "__context": {
      "plugin": "plugin---blog-193-acf"
    },
    "sidebar": "sidebar---blog-814-8ac",
    "items": [
      {
        "content": "content---blog-133-8b5"
      }
    ],
    "tag": "tag---blog-tags-introduction-204-dbd",
    "listMetadata": "listMetadata---blog-tags-introduction-5-ad-a84"
  },
  "/blog/tags/shorts-cf6": {
    "__comp": "__comp---theme-blog-tags-posts-page-687-b6c",
    "__context": {
      "plugin": "plugin---blog-193-acf"
    },
    "sidebar": "sidebar---blog-814-8ac",
    "items": [
      {
        "content": "content---blog-133-8b5"
      }
    ],
    "tag": "tag---blog-tags-shorts-93-c-c0e",
    "listMetadata": "listMetadata---blog-tags-shortsebf-e63"
  },
  "/blog/tags/world-22d": {
    "__comp": "__comp---theme-blog-tags-posts-page-687-b6c",
    "__context": {
      "plugin": "plugin---blog-193-acf"
    },
    "sidebar": "sidebar---blog-814-8ac",
    "items": [
      {
        "content": "content---blog-133-8b5"
      }
    ],
    "tag": "tag---blog-tags-world-4-fd-e56",
    "listMetadata": "listMetadata---blog-tags-worldb-3-c-e6c"
  },
  "/projects-ebe": {
    "__comp": "__comp---site-src-pages-projects-tsxa-8-f-73b",
    "__context": {
      "plugin": "plugin---assets-project-details-hm-pol-7-a-0-434"
    },
    "config": "config---projects-5-e-9-d4c"
  },
  "/publications-3e5": {
    "__comp": "__comp---site-src-pages-publications-tsx-490-731",
    "__context": {
      "plugin": "plugin---assets-project-details-hm-pol-7-a-0-434"
    },
    "config": "config---projects-5-e-9-d4c"
  },
  "/search-357": {
    "__comp": "__comp---theme-search-page-1-a-4-d6f",
    "__context": {
      "plugin": "plugin---search-887-316"
    }
  },
  "/talks-610": {
    "__comp": "__comp---site-src-pages-talks-tsx-0-fc-d36",
    "__context": {
      "plugin": "plugin---assets-project-details-hm-pol-7-a-0-434"
    },
    "config": "config---projects-5-e-9-d4c"
  },
  "/-4ce": {
    "__comp": "__comp---site-src-pages-index-tsx-1-df-d3e",
    "__context": {
      "plugin": "plugin---assets-project-details-hm-pol-7-a-0-434"
    },
    "config": "config---projects-5-e-9-d4c"
  }
}
